<svg width="1046" height="287" viewBox="0 0 1046 287" fill="none" xmlns="http://www.w3.org/2000/svg">
<line y1="144.5" x2="998" y2="144.5" stroke="black" stroke-width="5"/>
<line x1="40.5" y1="34" x2="40.5" y2="147" stroke="black" stroke-width="5"/>
<line x1="464.5" y1="34" x2="464.5" y2="147" stroke="black" stroke-width="5"/>
<line x1="680.5" y1="147" x2="680.5" y2="260" stroke="black" stroke-width="5"/>
<line x1="850.5" y1="34" x2="850.5" y2="147" stroke="black" stroke-width="5"/>
<line x1="250.5" y1="147" x2="250.5" y2="260" stroke="black" stroke-width="5"/>
<path d="M865.62 130.26L869.9 126.14C871.8 124.32 872.2 123.1 872.2 121.74C872.2 119.34 870.32 117.84 867.4 117.84C865.22 117.84 863.36 118.62 862.28 119.96L863.64 121.14C864.5 120.1 865.72 119.62 867.22 119.62C869.18 119.62 870.2 120.5 870.2 121.94C870.2 122.82 869.92 123.7 868.44 125.14L862.74 130.64V132H872.8V130.26H865.62ZM880.106 132.16C883.366 132.16 885.806 129.56 885.806 125C885.806 120.44 883.366 117.84 880.106 117.84C876.826 117.84 874.386 120.44 874.386 125C874.386 129.56 876.826 132.16 880.106 132.16ZM880.106 130.38C877.906 130.38 876.386 128.58 876.386 125C876.386 121.42 877.906 119.62 880.106 119.62C882.286 119.62 883.806 121.42 883.806 125C883.806 128.58 882.286 130.38 880.106 130.38ZM886.867 118V119.74H890.027V132H892.007V118H886.867ZM899.609 117.84C896.829 117.84 894.669 119.56 894.669 122.26C894.669 124.84 896.669 126.5 899.449 126.5C901.189 126.5 902.669 125.88 903.489 124.66V125.16C903.489 128.66 901.689 130.44 898.849 130.44C897.829 130.44 896.889 130.26 896.149 129.78L895.389 131.34C896.289 131.9 897.549 132.16 898.869 132.16C902.789 132.16 905.489 129.6 905.489 124.82C905.489 120.36 903.369 117.84 899.609 117.84ZM899.789 124.88C897.829 124.88 896.609 123.82 896.609 122.18C896.609 120.52 897.869 119.46 899.689 119.46C901.869 119.46 903.029 120.72 903.029 122.16C903.029 123.7 901.709 124.88 899.789 124.88Z" fill="#4A4A4A"/>
<path d="M695.62 164.26L699.9 160.14C701.8 158.32 702.2 157.1 702.2 155.74C702.2 153.34 700.32 151.84 697.4 151.84C695.22 151.84 693.36 152.62 692.28 153.96L693.64 155.14C694.5 154.1 695.72 153.62 697.22 153.62C699.18 153.62 700.2 154.5 700.2 155.94C700.2 156.82 699.92 157.7 698.44 159.14L692.74 164.64V166H702.8V164.26H695.62ZM710.106 166.16C713.366 166.16 715.806 163.56 715.806 159C715.806 154.44 713.366 151.84 710.106 151.84C706.826 151.84 704.386 154.44 704.386 159C704.386 163.56 706.826 166.16 710.106 166.16ZM710.106 164.38C707.906 164.38 706.386 162.58 706.386 159C706.386 155.42 707.906 153.62 710.106 153.62C712.286 153.62 713.806 155.42 713.806 159C713.806 162.58 712.286 164.38 710.106 164.38ZM716.867 152V153.74H720.027V166H722.007V152H716.867ZM731.109 157.5C729.369 157.5 727.889 158.14 727.089 159.34C727.069 159.16 727.069 159 727.069 158.84C727.069 155.34 728.889 153.56 731.729 153.56C732.729 153.56 733.689 153.74 734.409 154.22L735.169 152.66C734.269 152.1 733.009 151.84 731.689 151.84C727.769 151.84 725.069 154.4 725.069 159.18C725.069 163.64 727.189 166.16 730.949 166.16C733.729 166.16 735.909 164.44 735.909 161.74C735.909 159.16 733.889 157.5 731.109 157.5ZM730.869 164.54C728.709 164.54 727.549 163.28 727.549 161.84C727.549 160.3 728.869 159.12 730.769 159.12C732.729 159.12 733.969 160.18 733.969 161.82C733.969 163.48 732.689 164.54 730.869 164.54ZM737.691 161.34H743.071V159.68H737.691V161.34ZM747.573 164.26L751.853 160.14C753.753 158.32 754.153 157.1 754.153 155.74C754.153 153.34 752.273 151.84 749.353 151.84C747.173 151.84 745.313 152.62 744.233 153.96L745.593 155.14C746.453 154.1 747.673 153.62 749.173 153.62C751.133 153.62 752.153 154.5 752.153 155.94C752.153 156.82 751.873 157.7 750.393 159.14L744.693 164.64V166H754.753V164.26H747.573ZM762.059 166.16C765.319 166.16 767.759 163.56 767.759 159C767.759 154.44 765.319 151.84 762.059 151.84C758.779 151.84 756.339 154.44 756.339 159C756.339 163.56 758.779 166.16 762.059 166.16ZM762.059 164.38C759.859 164.38 758.339 162.58 758.339 159C758.339 155.42 759.859 153.62 762.059 153.62C764.239 153.62 765.759 155.42 765.759 159C765.759 162.58 764.239 164.38 762.059 164.38ZM768.82 152V153.74H771.98V166H773.96V152H768.82ZM781.563 151.84C778.783 151.84 776.623 153.56 776.623 156.26C776.623 158.84 778.623 160.5 781.403 160.5C783.143 160.5 784.623 159.88 785.443 158.66V159.16C785.443 162.66 783.643 164.44 780.803 164.44C779.783 164.44 778.843 164.26 778.103 163.78L777.343 165.34C778.243 165.9 779.503 166.16 780.823 166.16C784.743 166.16 787.443 163.6 787.443 158.82C787.443 154.36 785.323 151.84 781.563 151.84ZM781.743 158.88C779.783 158.88 778.562 157.82 778.562 156.18C778.562 154.52 779.823 153.46 781.643 153.46C783.823 153.46 784.983 154.72 784.983 156.16C784.983 157.7 783.663 158.88 781.743 158.88Z" fill="#4A4A4A"/>
<path d="M479.62 130.26L483.9 126.14C485.8 124.32 486.2 123.1 486.2 121.74C486.2 119.34 484.32 117.84 481.4 117.84C479.22 117.84 477.36 118.62 476.28 119.96L477.64 121.14C478.5 120.1 479.72 119.62 481.22 119.62C483.18 119.62 484.2 120.5 484.2 121.94C484.2 122.82 483.92 123.7 482.44 125.14L476.74 130.64V132H486.8V130.26H479.62ZM494.106 132.16C497.366 132.16 499.806 129.56 499.806 125C499.806 120.44 497.366 117.84 494.106 117.84C490.826 117.84 488.386 120.44 488.386 125C488.386 129.56 490.826 132.16 494.106 132.16ZM494.106 130.38C491.906 130.38 490.386 128.58 490.386 125C490.386 121.42 491.906 119.62 494.106 119.62C496.286 119.62 497.806 121.42 497.806 125C497.806 128.58 496.286 130.38 494.106 130.38ZM500.867 118V119.74H504.027V132H506.007V118H500.867ZM514.429 123.88L518.089 119.36V118H508.849V119.74H515.589L512.069 124.06V125.46H513.189C515.589 125.46 516.649 126.42 516.649 127.9C516.649 129.42 515.449 130.38 513.349 130.38C511.629 130.38 510.069 129.76 509.129 128.88L508.209 130.46C509.389 131.52 511.349 132.16 513.349 132.16C516.909 132.16 518.649 130.24 518.649 127.88C518.649 125.72 517.229 124.14 514.429 123.88ZM520.695 127.34H526.075V125.68H520.695V127.34ZM530.577 130.26L534.857 126.14C536.757 124.32 537.157 123.1 537.157 121.74C537.157 119.34 535.277 117.84 532.357 117.84C530.177 117.84 528.317 118.62 527.237 119.96L528.597 121.14C529.457 120.1 530.677 119.62 532.177 119.62C534.137 119.62 535.157 120.5 535.157 121.94C535.157 122.82 534.877 123.7 533.397 125.14L527.697 130.64V132H537.757V130.26H530.577ZM545.063 132.16C548.323 132.16 550.763 129.56 550.763 125C550.763 120.44 548.323 117.84 545.063 117.84C541.783 117.84 539.343 120.44 539.343 125C539.343 129.56 541.783 132.16 545.063 132.16ZM545.063 130.38C542.863 130.38 541.343 128.58 541.343 125C541.343 121.42 542.863 119.62 545.063 119.62C547.243 119.62 548.763 121.42 548.763 125C548.763 128.58 547.243 130.38 545.063 130.38ZM551.824 118V119.74H554.984V132H556.964V118H551.824ZM566.066 123.5C564.326 123.5 562.846 124.14 562.046 125.34C562.026 125.16 562.026 125 562.026 124.84C562.026 121.34 563.846 119.56 566.686 119.56C567.686 119.56 568.646 119.74 569.366 120.22L570.126 118.66C569.226 118.1 567.966 117.84 566.646 117.84C562.726 117.84 560.026 120.4 560.026 125.18C560.026 129.64 562.146 132.16 565.906 132.16C568.686 132.16 570.866 130.44 570.866 127.74C570.866 125.16 568.846 123.5 566.066 123.5ZM565.826 130.54C563.666 130.54 562.506 129.28 562.506 127.84C562.506 126.3 563.826 125.12 565.726 125.12C567.686 125.12 568.926 126.18 568.926 127.82C568.926 129.48 567.646 130.54 565.826 130.54Z" fill="#4A4A4A"/>
<path d="M266.62 167.26L270.9 163.14C272.8 161.32 273.2 160.1 273.2 158.74C273.2 156.34 271.32 154.84 268.4 154.84C266.22 154.84 264.36 155.62 263.28 156.96L264.64 158.14C265.5 157.1 266.72 156.62 268.22 156.62C270.18 156.62 271.2 157.5 271.2 158.94C271.2 159.82 270.92 160.7 269.44 162.14L263.74 167.64V169H273.8V167.26H266.62ZM281.106 169.16C284.366 169.16 286.806 166.56 286.806 162C286.806 157.44 284.366 154.84 281.106 154.84C277.826 154.84 275.386 157.44 275.386 162C275.386 166.56 277.826 169.16 281.106 169.16ZM281.106 167.38C278.906 167.38 277.386 165.58 277.386 162C277.386 158.42 278.906 156.62 281.106 156.62C283.286 156.62 284.806 158.42 284.806 162C284.806 165.58 283.286 167.38 281.106 167.38ZM294.446 169.16C297.706 169.16 300.146 166.56 300.146 162C300.146 157.44 297.706 154.84 294.446 154.84C291.166 154.84 288.726 157.44 288.726 162C288.726 166.56 291.166 169.16 294.446 169.16ZM294.446 167.38C292.246 167.38 290.726 165.58 290.726 162C290.726 158.42 292.246 156.62 294.446 156.62C296.626 156.62 298.146 158.42 298.146 162C298.146 165.58 296.626 167.38 294.446 167.38ZM301.569 155V159.24H303.489V156.74H309.889L304.349 169H306.469L312.129 156.36V155H301.569ZM313.066 164.34H318.446V162.68H313.066V164.34ZM322.948 167.26L327.228 163.14C329.128 161.32 329.528 160.1 329.528 158.74C329.528 156.34 327.648 154.84 324.728 154.84C322.548 154.84 320.688 155.62 319.608 156.96L320.968 158.14C321.828 157.1 323.048 156.62 324.548 156.62C326.508 156.62 327.528 157.5 327.528 158.94C327.528 159.82 327.248 160.7 325.768 162.14L320.068 167.64V169H330.128V167.26H322.948ZM337.434 169.16C340.694 169.16 343.134 166.56 343.134 162C343.134 157.44 340.694 154.84 337.434 154.84C334.154 154.84 331.714 157.44 331.714 162C331.714 166.56 334.154 169.16 337.434 169.16ZM337.434 167.38C335.234 167.38 333.714 165.58 333.714 162C333.714 158.42 335.234 156.62 337.434 156.62C339.614 156.62 341.134 158.42 341.134 162C341.134 165.58 339.614 167.38 337.434 167.38ZM344.195 155V156.74H347.355V169H349.335V155H344.195ZM357.758 160.88L361.418 156.36V155H352.178V156.74H358.918L355.398 161.06V162.46H356.518C358.918 162.46 359.978 163.42 359.978 164.9C359.978 166.42 358.778 167.38 356.678 167.38C354.958 167.38 353.398 166.76 352.458 165.88L351.538 167.46C352.718 168.52 354.678 169.16 356.678 169.16C360.238 169.16 361.978 167.24 361.978 164.88C361.978 162.72 360.558 161.14 357.758 160.88Z" fill="#4A4A4A"/>
<path d="M56.62 130.26L60.9 126.14C62.8 124.32 63.2 123.1 63.2 121.74C63.2 119.34 61.32 117.84 58.4 117.84C56.22 117.84 54.36 118.62 53.28 119.96L54.64 121.14C55.5 120.1 56.72 119.62 58.22 119.62C60.18 119.62 61.2 120.5 61.2 121.94C61.2 122.82 60.92 123.7 59.44 125.14L53.74 130.64V132H63.8V130.26H56.62ZM71.1058 132.16C74.3658 132.16 76.8058 129.56 76.8058 125C76.8058 120.44 74.3658 117.84 71.1058 117.84C67.8258 117.84 65.3858 120.44 65.3858 125C65.3858 129.56 67.8258 132.16 71.1058 132.16ZM71.1058 130.38C68.9058 130.38 67.3858 128.58 67.3858 125C67.3858 121.42 68.9058 119.62 71.1058 119.62C73.2858 119.62 74.8058 121.42 74.8058 125C74.8058 128.58 73.2858 130.38 71.1058 130.38ZM84.4456 132.16C87.7056 132.16 90.1456 129.56 90.1456 125C90.1456 120.44 87.7056 117.84 84.4456 117.84C81.1656 117.84 78.7256 120.44 78.7256 125C78.7256 129.56 81.1656 132.16 84.4456 132.16ZM84.4456 130.38C82.2456 130.38 80.7256 128.58 80.7256 125C80.7256 121.42 82.2456 119.62 84.4456 119.62C86.6256 119.62 88.1456 121.42 88.1456 125C88.1456 128.58 86.6256 130.38 84.4456 130.38ZM96.0655 123.58H94.5055L94.8855 119.74H101.105V118H93.2055L92.4655 125.32H95.6455C98.8855 125.32 99.8855 126.3 99.8855 127.88C99.8855 129.4 98.6855 130.38 96.5655 130.38C94.8655 130.38 93.3055 129.76 92.3655 128.88L91.4455 130.46C92.6455 131.52 94.6055 132.16 96.5855 132.16C100.165 132.16 101.885 130.22 101.885 127.8C101.885 125.32 100.245 123.58 96.0655 123.58ZM103.73 127.34H109.11V125.68H103.73V127.34ZM113.612 130.26L117.892 126.14C119.792 124.32 120.192 123.1 120.192 121.74C120.192 119.34 118.312 117.84 115.392 117.84C113.212 117.84 111.352 118.62 110.272 119.96L111.632 121.14C112.492 120.1 113.712 119.62 115.212 119.62C117.172 119.62 118.192 120.5 118.192 121.94C118.192 122.82 117.912 123.7 116.432 125.14L110.732 130.64V132H120.792V130.26H113.612ZM128.098 132.16C131.358 132.16 133.798 129.56 133.798 125C133.798 120.44 131.358 117.84 128.098 117.84C124.818 117.84 122.378 120.44 122.378 125C122.378 129.56 124.818 132.16 128.098 132.16ZM128.098 130.38C125.898 130.38 124.378 128.58 124.378 125C124.378 121.42 125.898 119.62 128.098 119.62C130.278 119.62 131.798 121.42 131.798 125C131.798 128.58 130.278 130.38 128.098 130.38ZM141.438 132.16C144.698 132.16 147.138 129.56 147.138 125C147.138 120.44 144.698 117.84 141.438 117.84C138.158 117.84 135.718 120.44 135.718 125C135.718 129.56 138.158 132.16 141.438 132.16ZM141.438 130.38C139.238 130.38 137.718 128.58 137.718 125C137.718 121.42 139.238 119.62 141.438 119.62C143.618 119.62 145.138 121.42 145.138 125C145.138 128.58 143.618 130.38 141.438 130.38ZM148.561 118V122.24H150.481V119.74H156.881L151.341 132H153.461L159.121 119.36V118H148.561Z" fill="#4A4A4A"/>
<path d="M4.56 19H7.8V7.64H12.28V5H0.08V7.64H4.56V19ZM23.6033 19H27.3833L21.2433 11.24L27.0433 5H23.4433L17.2433 11.54V5H14.0233V19H17.2433V15.46L19.1233 13.5L23.6033 19ZM39.092 19.24C43.092 19.24 45.032 17.24 45.032 14.9C45.032 9.76 36.892 11.54 36.892 8.96C36.892 8.08 37.632 7.36 39.552 7.36C40.792 7.36 42.132 7.72 43.432 8.46L44.432 6C43.132 5.18 41.332 4.76 39.572 4.76C35.592 4.76 33.672 6.74 33.672 9.12C33.672 14.32 41.812 12.52 41.812 15.14C41.812 16 41.032 16.64 39.112 16.64C37.432 16.64 35.672 16.04 34.492 15.18L33.392 17.62C34.632 18.58 36.872 19.24 39.092 19.24ZM54.7459 8.24V13.56C54.7459 15.54 53.7059 16.46 52.2659 16.46C50.8859 16.46 50.0859 15.66 50.0859 13.86V8.24H46.9659V14.32C46.9659 17.64 48.8659 19.16 51.5659 19.16C52.8859 19.16 54.0859 18.66 54.9059 17.72V19H57.8659V8.24H54.7459ZM63.7364 9.66V8.24H60.7564V19H63.8764V13.92C63.8764 11.86 65.0164 10.92 66.7364 10.92C66.9764 10.92 67.1764 10.94 67.4364 10.96V8.08C65.7764 8.08 64.4964 8.62 63.7364 9.66ZM77.3427 8.24L74.3027 15.54L71.2827 8.24H68.0627L72.7227 19.08L72.6827 19.18C72.2627 20.14 71.7827 20.52 70.9227 20.52C70.3027 20.52 69.6427 20.26 69.1627 19.84L68.0227 22.06C68.7227 22.68 69.9227 23.04 71.0227 23.04C72.9627 23.04 74.4427 22.26 75.4827 19.66L80.3427 8.24H77.3427ZM85.6042 8.08C83.8842 8.08 82.1442 8.54 80.9642 9.38L82.0842 11.56C82.8642 10.94 84.0442 10.56 85.1842 10.56C86.8642 10.56 87.6642 11.34 87.6642 12.68H85.1842C81.9042 12.68 80.5642 14 80.5642 15.9C80.5642 17.76 82.0642 19.16 84.5842 19.16C86.1642 19.16 87.2842 18.64 87.8642 17.66V19H90.7842V12.86C90.7842 9.6 88.8842 8.08 85.6042 8.08ZM85.3642 17.06C84.2642 17.06 83.6042 16.54 83.6042 15.76C83.6042 15.04 84.0642 14.5 85.5242 14.5H87.6642V15.6C87.3042 16.58 86.4042 17.06 85.3642 17.06ZM105.552 5H99.492V19H102.732V15.14H105.552C109.292 15.14 111.632 13.2 111.632 10.08C111.632 6.94 109.292 5 105.552 5ZM105.372 12.5H102.732V7.64H105.372C107.352 7.64 108.352 8.54 108.352 10.08C108.352 11.6 107.352 12.5 105.372 12.5ZM124.246 13.66C124.246 10.2 121.806 8.08 118.646 8.08C115.366 8.08 112.906 10.4 112.906 13.62C112.906 16.82 115.326 19.16 119.046 19.16C120.986 19.16 122.486 18.56 123.486 17.42L121.826 15.62C121.086 16.32 120.266 16.66 119.126 16.66C117.486 16.66 116.346 15.84 116.046 14.5H124.186C124.206 14.24 124.246 13.9 124.246 13.66ZM118.666 10.44C120.066 10.44 121.086 11.32 121.306 12.68H116.006C116.226 11.3 117.246 10.44 118.666 10.44ZM140.103 8.08C138.483 8.08 137.083 8.74 136.223 9.84C135.463 8.66 134.183 8.08 132.683 8.08C131.303 8.08 130.103 8.56 129.303 9.48V8.24H126.323V19H129.443V13.6C129.443 11.68 130.423 10.78 131.803 10.78C133.103 10.78 133.843 11.58 133.843 13.32V19H136.963V13.6C136.963 11.68 137.943 10.78 139.343 10.78C140.603 10.78 141.383 11.58 141.383 13.32V19H144.503V12.84C144.503 9.56 142.663 8.08 140.103 8.08ZM151.639 8.08C149.919 8.08 148.179 8.54 146.999 9.38L148.119 11.56C148.899 10.94 150.079 10.56 151.219 10.56C152.899 10.56 153.699 11.34 153.699 12.68H151.219C147.939 12.68 146.599 14 146.599 15.9C146.599 17.76 148.099 19.16 150.619 19.16C152.199 19.16 153.319 18.64 153.899 17.66V19H156.819V12.86C156.819 9.6 154.919 8.08 151.639 8.08ZM151.399 17.06C150.299 17.06 149.639 16.54 149.639 15.76C149.639 15.04 150.099 14.5 151.559 14.5H153.699V15.6C153.339 16.58 152.439 17.06 151.399 17.06ZM166.183 8.08C164.723 8.08 163.463 8.58 162.623 9.5V8.24H159.643V19H162.763V13.68C162.763 11.7 163.843 10.78 165.343 10.78C166.723 10.78 167.523 11.58 167.523 13.32V19H170.643V12.84C170.643 9.56 168.723 8.08 166.183 8.08ZM181.428 4.16V9.38C180.648 8.5 179.528 8.08 178.208 8.08C175.168 8.08 172.828 10.24 172.828 13.62C172.828 17 175.168 19.16 178.208 19.16C179.648 19.16 180.788 18.7 181.568 17.76V19H184.548V4.16H181.428ZM178.748 16.6C177.188 16.6 175.988 15.48 175.988 13.62C175.988 11.76 177.188 10.64 178.748 10.64C180.288 10.64 181.488 11.76 181.488 13.62C181.488 15.48 180.288 16.6 178.748 16.6ZM195.156 8.24V13.56C195.156 15.54 194.116 16.46 192.676 16.46C191.296 16.46 190.496 15.66 190.496 13.86V8.24H187.376V14.32C187.376 17.64 189.276 19.16 191.976 19.16C193.296 19.16 194.496 18.66 195.316 17.72V19H198.276V8.24H195.156Z" fill="black"/>
<path d="M448.26 26.24C452.26 26.24 454.2 24.24 454.2 21.9C454.2 16.76 446.06 18.54 446.06 15.96C446.06 15.08 446.8 14.36 448.72 14.36C449.96 14.36 451.3 14.72 452.6 15.46L453.6 13C452.3 12.18 450.5 11.76 448.74 11.76C444.76 11.76 442.84 13.74 442.84 16.12C442.84 21.32 450.98 19.52 450.98 22.14C450.98 23 450.2 23.64 448.28 23.64C446.6 23.64 444.84 23.04 443.66 22.18L442.56 24.62C443.8 25.58 446.04 26.24 448.26 26.24ZM472.194 26L472.154 12H469.494L464.334 20.7L459.094 12H456.414V26H459.454V17.78L463.554 24.52H465.014L469.134 17.6L469.154 26H472.194ZM481.575 12H475.515V26H478.755V22.14H481.575C485.315 22.14 487.655 20.2 487.655 17.08C487.655 13.94 485.315 12 481.575 12ZM481.395 19.5H478.755V14.64H481.395C483.375 14.64 484.375 15.54 484.375 17.08C484.375 18.6 483.375 19.5 481.395 19.5ZM500.428 26.24C504.428 26.24 506.368 24.24 506.368 21.9C506.368 16.76 498.228 18.54 498.228 15.96C498.228 15.08 498.968 14.36 500.888 14.36C502.128 14.36 503.468 14.72 504.768 15.46L505.768 13C504.468 12.18 502.668 11.76 500.908 11.76C496.928 11.76 495.008 13.74 495.008 16.12C495.008 21.32 503.148 19.52 503.148 22.14C503.148 23 502.368 23.64 500.448 23.64C498.768 23.64 497.008 23.04 495.828 22.18L494.728 24.62C495.968 25.58 498.208 26.24 500.428 26.24ZM514.462 23.28C514.122 23.54 513.662 23.68 513.202 23.68C512.362 23.68 511.862 23.18 511.862 22.26V17.88H514.542V15.48H511.862V12.86H508.742V15.48H507.082V17.88H508.742V22.3C508.742 24.86 510.222 26.16 512.762 26.16C513.722 26.16 514.662 25.94 515.302 25.48L514.462 23.28ZM518.449 22.28C517.349 22.28 516.509 23.04 516.509 24.2C516.509 25.02 516.929 25.64 517.589 25.9L516.709 29.08H518.689L519.829 26.2C520.289 25.1 520.369 24.72 520.369 24.2C520.369 23.06 519.569 22.28 518.449 22.28ZM537.947 26H541.727L535.587 18.24L541.387 12H537.787L531.587 18.54V12H528.367V26H531.587V22.46L533.467 20.5L537.947 26ZM545.736 16.66V15.24H542.756V26H545.876V20.92C545.876 18.86 547.016 17.92 548.736 17.92C548.976 17.92 549.176 17.94 549.436 17.96V15.08C547.776 15.08 546.496 15.62 545.736 16.66ZM552.852 13.74C554.012 13.74 554.792 12.98 554.792 11.94C554.792 10.98 554.012 10.26 552.852 10.26C551.692 10.26 550.912 11.02 550.912 12C550.912 12.98 551.692 13.74 552.852 13.74ZM551.292 26H554.412V15.24H551.292V26ZM560.927 26.16C564.147 26.16 566.007 24.74 566.007 22.74C566.007 18.5 559.507 20.28 559.507 18.44C559.507 17.88 560.107 17.44 561.507 17.44C562.487 17.44 563.547 17.64 564.607 18.24L565.647 16.02C564.627 15.42 562.987 15.08 561.507 15.08C558.367 15.08 556.527 16.52 556.527 18.56C556.527 22.86 563.027 21.06 563.027 22.82C563.027 23.42 562.487 23.8 561.047 23.8C559.727 23.8 558.267 23.38 557.307 22.76L556.267 25C557.267 25.66 559.107 26.16 560.927 26.16ZM574.032 23.28C573.692 23.54 573.232 23.68 572.772 23.68C571.932 23.68 571.432 23.18 571.432 22.26V17.88H574.112V15.48H571.432V12.86H568.312V15.48H566.652V17.88H568.312V22.3C568.312 24.86 569.792 26.16 572.332 26.16C573.292 26.16 574.232 25.94 574.872 25.48L574.032 23.28ZM581.412 26.16C584.832 26.16 587.312 23.86 587.312 20.62C587.312 17.38 584.832 15.08 581.412 15.08C577.992 15.08 575.492 17.38 575.492 20.62C575.492 23.86 577.992 26.16 581.412 26.16ZM581.412 23.6C579.852 23.6 578.652 22.48 578.652 20.62C578.652 18.76 579.852 17.64 581.412 17.64C582.972 17.64 584.152 18.76 584.152 20.62C584.152 22.48 582.972 23.6 581.412 23.6ZM592.817 15.02C592.817 13.96 593.317 13.46 594.237 13.46C594.717 13.46 595.157 13.6 595.497 13.84L596.317 11.58C595.737 11.18 594.817 11 593.937 11C591.257 11 589.777 12.58 589.777 15V15.48H588.117V17.88H589.777V26H592.897V17.88H595.577V15.48H592.817V15.02ZM602.115 26.16C605.535 26.16 608.015 23.86 608.015 20.62C608.015 17.38 605.535 15.08 602.115 15.08C598.695 15.08 596.195 17.38 596.195 20.62C596.195 23.86 598.695 26.16 602.115 26.16ZM602.115 23.6C600.555 23.6 599.355 22.48 599.355 20.62C599.355 18.76 600.555 17.64 602.115 17.64C603.675 17.64 604.855 18.76 604.855 20.62C604.855 22.48 603.675 23.6 602.115 23.6ZM613.08 16.66V15.24H610.1V26H613.22V20.92C613.22 18.86 614.36 17.92 616.08 17.92C616.32 17.92 616.52 17.94 616.78 17.96V15.08C615.12 15.08 613.84 15.62 613.08 16.66ZM626.433 15.24V20.56C626.433 22.54 625.393 23.46 623.953 23.46C622.573 23.46 621.773 22.66 621.773 20.86V15.24H618.653V21.32C618.653 24.64 620.553 26.16 623.253 26.16C624.573 26.16 625.773 25.66 626.593 24.72V26H629.553V15.24H626.433ZM636.064 26.16C639.284 26.16 641.144 24.74 641.144 22.74C641.144 18.5 634.644 20.28 634.644 18.44C634.644 17.88 635.244 17.44 636.644 17.44C637.624 17.44 638.684 17.64 639.744 18.24L640.784 16.02C639.764 15.42 638.124 15.08 636.644 15.08C633.504 15.08 631.664 16.52 631.664 18.56C631.664 22.86 638.164 21.06 638.164 22.82C638.164 23.42 637.624 23.8 636.184 23.8C634.864 23.8 633.404 23.38 632.444 22.76L631.404 25C632.404 25.66 634.244 26.16 636.064 26.16ZM648.953 26H652.193V12H648.953V26Z" fill="black"/>
<path d="M649.26 282.24C653.26 282.24 655.2 280.24 655.2 277.9C655.2 272.76 647.06 274.54 647.06 271.96C647.06 271.08 647.8 270.36 649.72 270.36C650.96 270.36 652.3 270.72 653.6 271.46L654.6 269C653.3 268.18 651.5 267.76 649.74 267.76C645.76 267.76 643.84 269.74 643.84 272.12C643.84 277.32 651.98 275.52 651.98 278.14C651.98 279 651.2 279.64 649.28 279.64C647.6 279.64 645.84 279.04 644.66 278.18L643.56 280.62C644.8 281.58 647.04 282.24 649.26 282.24ZM673.194 282L673.154 268H670.494L665.334 276.7L660.094 268H657.414V282H660.454V273.78L664.554 280.52H666.014L670.134 273.6L670.154 282H673.194ZM686.975 282H690.375L684.115 268H680.915L674.675 282H677.995L679.235 279H685.735L686.975 282ZM680.275 276.54L682.495 271.18L684.715 276.54H680.275ZM701.408 282H705.188L699.048 274.24L704.848 268H701.248L695.048 274.54V268H691.828V282H695.048V278.46L696.928 276.5L701.408 282ZM710.777 268V270.6H713.577V282H716.817V268H710.777ZM731.853 268H725.793V282H729.033V278.14H731.853C735.593 278.14 737.933 276.2 737.933 273.08C737.933 269.94 735.593 268 731.853 268ZM731.673 275.5H729.033V270.64H731.673C733.653 270.64 734.653 271.54 734.653 273.08C734.653 274.6 733.653 275.5 731.673 275.5ZM743.466 279.4V276.16H749.966V273.64H743.466V270.6H750.826V268H740.246V282H751.086V279.4H743.466ZM763.304 268V276.5L756.344 268H753.664V282H756.864V273.5L763.844 282H766.504V268H763.304ZM780.276 282H783.676L777.416 268H774.216L767.976 282H771.296L772.536 279H779.036L780.276 282ZM773.576 276.54L775.796 271.18L778.016 276.54H773.576ZM795.409 274.72C796.549 274.12 797.269 273.04 797.269 271.64C797.269 269.46 795.469 268 791.969 268H785.129V282H792.369C796.049 282 797.969 280.6 797.969 278.18C797.969 276.42 796.969 275.22 795.409 274.72ZM791.569 270.44C793.149 270.44 794.009 270.98 794.009 272.08C794.009 273.18 793.149 273.74 791.569 273.74H788.349V270.44H791.569ZM792.129 279.56H788.349V276.1H792.129C793.809 276.1 794.709 276.66 794.709 277.84C794.709 279.04 793.809 279.56 792.129 279.56ZM806.642 282.24C810.622 282.24 812.982 279.96 812.982 275.84V268H809.782V275.72C809.782 278.38 808.642 279.48 806.662 279.48C804.702 279.48 803.542 278.38 803.542 275.72V268H800.302V275.84C800.302 279.96 802.662 282.24 806.642 282.24ZM828.583 282L825.443 277.5C827.263 276.72 828.323 275.18 828.323 273.08C828.323 269.94 825.983 268 822.243 268H816.183V282H819.423V278.1H822.243H822.403L825.103 282H828.583ZM825.043 273.08C825.043 274.6 824.043 275.52 822.063 275.52H819.423V270.64H822.063C824.043 270.64 825.043 271.54 825.043 273.08ZM839.135 282.24C842.435 282.24 844.175 280.54 844.175 277.08V268H836.035V270.6H840.955V277.26C840.955 278.8 840.275 279.58 838.975 279.58C837.975 279.58 837.135 279.06 836.375 278.04L834.575 280.2C835.595 281.52 837.255 282.24 839.135 282.24ZM851.495 271.08C849.775 271.08 848.035 271.54 846.855 272.38L847.975 274.56C848.755 273.94 849.935 273.56 851.075 273.56C852.755 273.56 853.555 274.34 853.555 275.68H851.075C847.795 275.68 846.455 277 846.455 278.9C846.455 280.76 847.955 282.16 850.475 282.16C852.055 282.16 853.175 281.64 853.755 280.66V282H856.675V275.86C856.675 272.6 854.775 271.08 851.495 271.08ZM851.255 280.06C850.155 280.06 849.495 279.54 849.495 278.76C849.495 278.04 849.955 277.5 851.415 277.5H853.555V278.6C853.195 279.58 852.295 280.06 851.255 280.06ZM867.519 282H871.299L866.419 275.8L870.899 271.24H867.179L862.619 275.56V267.16H859.499V282H862.619V279.26L864.119 277.78L867.519 282ZM876.846 271.08C875.126 271.08 873.386 271.54 872.206 272.38L873.326 274.56C874.106 273.94 875.286 273.56 876.426 273.56C878.106 273.56 878.906 274.34 878.906 275.68H876.426C873.146 275.68 871.806 277 871.806 278.9C871.806 280.76 873.306 282.16 875.826 282.16C877.406 282.16 878.526 281.64 879.106 280.66V282H882.026V275.86C882.026 272.6 880.126 271.08 876.846 271.08ZM876.606 280.06C875.506 280.06 874.846 279.54 874.846 278.76C874.846 278.04 875.306 277.5 876.766 277.5H878.906V278.6C878.546 279.58 877.646 280.06 876.606 280.06ZM887.83 272.66V271.24H884.85V282H887.97V276.92C887.97 274.86 889.11 273.92 890.83 273.92C891.07 273.92 891.27 273.94 891.53 273.96V271.08C889.87 271.08 888.59 271.62 887.83 272.66ZM899.856 279.28C899.516 279.54 899.056 279.68 898.596 279.68C897.756 279.68 897.256 279.18 897.256 278.26V273.88H899.936V271.48H897.256V268.86H894.136V271.48H892.476V273.88H894.136V278.3C894.136 280.86 895.616 282.16 898.156 282.16C899.116 282.16 900.056 281.94 900.696 281.48L899.856 279.28ZM906.788 271.08C905.068 271.08 903.328 271.54 902.148 272.38L903.268 274.56C904.048 273.94 905.228 273.56 906.368 273.56C908.048 273.56 908.848 274.34 908.848 275.68H906.368C903.088 275.68 901.748 277 901.748 278.9C901.748 280.76 903.248 282.16 905.768 282.16C907.348 282.16 908.468 281.64 909.048 280.66V282H911.968V275.86C911.968 272.6 910.068 271.08 906.788 271.08ZM906.548 280.06C905.448 280.06 904.788 279.54 904.788 278.76C904.788 278.04 905.248 277.5 906.708 277.5H908.848V278.6C908.488 279.58 907.588 280.06 906.548 280.06Z" fill="black"/>
<path d="M827.88 21.24C831.86 21.24 834.22 18.96 834.22 14.84V7H831.02V14.72C831.02 17.38 829.88 18.48 827.9 18.48C825.94 18.48 824.78 17.38 824.78 14.72V7H821.54V14.84C821.54 18.96 823.9 21.24 827.88 21.24ZM843.742 10.08C842.282 10.08 841.022 10.58 840.182 11.5V10.24H837.202V21H840.322V15.68C840.322 13.7 841.402 12.78 842.902 12.78C844.282 12.78 845.082 13.58 845.082 15.32V21H848.202V14.84C848.202 11.56 846.282 10.08 843.742 10.08ZM852.59 8.74C853.75 8.74 854.53 7.98 854.53 6.94C854.53 5.98 853.75 5.26 852.59 5.26C851.43 5.26 850.65 6.02 850.65 7C850.65 7.98 851.43 8.74 852.59 8.74ZM851.03 21H854.15V10.24H851.03V21ZM864.725 10.24L861.645 17.56L858.665 10.24H855.445L859.965 21H863.185L867.725 10.24H864.725ZM879.246 15.66C879.246 12.2 876.806 10.08 873.646 10.08C870.366 10.08 867.906 12.4 867.906 15.62C867.906 18.82 870.326 21.16 874.046 21.16C875.986 21.16 877.486 20.56 878.486 19.42L876.826 17.62C876.086 18.32 875.266 18.66 874.126 18.66C872.486 18.66 871.346 17.84 871.046 16.5H879.186C879.206 16.24 879.246 15.9 879.246 15.66ZM873.666 12.44C875.066 12.44 876.086 13.32 876.306 14.68H871.006C871.226 13.3 872.246 12.44 873.666 12.44ZM884.303 11.66V10.24H881.323V21H884.443V15.92C884.443 13.86 885.583 12.92 887.303 12.92C887.543 12.92 887.743 12.94 888.003 12.96V10.08C886.343 10.08 885.063 10.62 884.303 11.66ZM893.517 21.16C896.737 21.16 898.597 19.74 898.597 17.74C898.597 13.5 892.097 15.28 892.097 13.44C892.097 12.88 892.697 12.44 894.097 12.44C895.077 12.44 896.137 12.64 897.197 13.24L898.237 11.02C897.217 10.42 895.577 10.08 894.097 10.08C890.957 10.08 889.117 11.52 889.117 13.56C889.117 17.86 895.617 16.06 895.617 17.82C895.617 18.42 895.077 18.8 893.637 18.8C892.317 18.8 890.857 18.38 889.897 17.76L888.857 20C889.857 20.66 891.697 21.16 893.517 21.16ZM902.082 8.74C903.242 8.74 904.022 7.98 904.022 6.94C904.022 5.98 903.242 5.26 902.082 5.26C900.922 5.26 900.142 6.02 900.142 7C900.142 7.98 900.922 8.74 902.082 8.74ZM900.522 21H903.642V10.24H900.522V21ZM912.638 18.28C912.298 18.54 911.838 18.68 911.378 18.68C910.538 18.68 910.038 18.18 910.038 17.26V12.88H912.718V10.48H910.038V7.86H906.918V10.48H905.258V12.88H906.918V17.3C906.918 19.86 908.398 21.16 910.938 21.16C911.898 21.16 912.838 20.94 913.478 20.48L912.638 18.28ZM919.569 10.08C917.849 10.08 916.109 10.54 914.929 11.38L916.049 13.56C916.829 12.94 918.009 12.56 919.149 12.56C920.829 12.56 921.629 13.34 921.629 14.68H919.149C915.869 14.68 914.529 16 914.529 17.9C914.529 19.76 916.029 21.16 918.549 21.16C920.129 21.16 921.249 20.64 921.829 19.66V21H924.749V14.86C924.749 11.6 922.849 10.08 919.569 10.08ZM919.329 19.06C918.229 19.06 917.569 18.54 917.569 17.76C917.569 17.04 918.029 16.5 919.489 16.5H921.629V17.6C921.269 18.58 920.369 19.06 919.329 19.06ZM931.193 21.16C934.413 21.16 936.273 19.74 936.273 17.74C936.273 13.5 929.773 15.28 929.773 13.44C929.773 12.88 930.373 12.44 931.773 12.44C932.753 12.44 933.813 12.64 934.873 13.24L935.913 11.02C934.893 10.42 933.253 10.08 931.773 10.08C928.633 10.08 926.793 11.52 926.793 13.56C926.793 17.86 933.293 16.06 933.293 17.82C933.293 18.42 932.753 18.8 931.313 18.8C929.993 18.8 928.533 18.38 927.573 17.76L926.533 20C927.533 20.66 929.373 21.16 931.193 21.16ZM944.082 21H947.322V7H944.082V21ZM956.964 10.08C955.504 10.08 954.244 10.58 953.404 11.5V10.24H950.424V21H953.544V15.68C953.544 13.7 954.624 12.78 956.124 12.78C957.504 12.78 958.304 13.58 958.304 15.32V21H961.424V14.84C961.424 11.56 959.504 10.08 956.964 10.08ZM972.21 6.16V11.38C971.43 10.5 970.31 10.08 968.99 10.08C965.95 10.08 963.61 12.24 963.61 15.62C963.61 19 965.95 21.16 968.99 21.16C970.43 21.16 971.57 20.7 972.35 19.76V21H975.33V6.16H972.21ZM969.53 18.6C967.97 18.6 966.77 17.48 966.77 15.62C966.77 13.76 967.97 12.64 969.53 12.64C971.07 12.64 972.27 13.76 972.27 15.62C972.27 17.48 971.07 18.6 969.53 18.6ZM983.337 21.16C986.757 21.16 989.237 18.86 989.237 15.62C989.237 12.38 986.757 10.08 983.337 10.08C979.917 10.08 977.417 12.38 977.417 15.62C977.417 18.86 979.917 21.16 983.337 21.16ZM983.337 18.6C981.777 18.6 980.577 17.48 980.577 15.62C980.577 13.76 981.777 12.64 983.337 12.64C984.897 12.64 986.077 13.76 986.077 15.62C986.077 17.48 984.897 18.6 983.337 18.6ZM997.863 10.08C996.403 10.08 995.143 10.58 994.303 11.5V10.24H991.323V21H994.443V15.68C994.443 13.7 995.523 12.78 997.023 12.78C998.403 12.78 999.203 13.58 999.203 15.32V21H1002.32V14.84C1002.32 11.56 1000.4 10.08 997.863 10.08ZM1015.81 15.66C1015.81 12.2 1013.37 10.08 1010.21 10.08C1006.93 10.08 1004.47 12.4 1004.47 15.62C1004.47 18.82 1006.89 21.16 1010.61 21.16C1012.55 21.16 1014.05 20.56 1015.05 19.42L1013.39 17.62C1012.65 18.32 1011.83 18.66 1010.69 18.66C1009.05 18.66 1007.91 17.84 1007.61 16.5H1015.75C1015.77 16.24 1015.81 15.9 1015.81 15.66ZM1010.23 12.44C1011.63 12.44 1012.65 13.32 1012.87 14.68H1007.57C1007.79 13.3 1008.81 12.44 1010.23 12.44ZM1021.51 21.16C1024.73 21.16 1026.59 19.74 1026.59 17.74C1026.59 13.5 1020.09 15.28 1020.09 13.44C1020.09 12.88 1020.69 12.44 1022.09 12.44C1023.07 12.44 1024.13 12.64 1025.19 13.24L1026.23 11.02C1025.21 10.42 1023.57 10.08 1022.09 10.08C1018.95 10.08 1017.11 11.52 1017.11 13.56C1017.11 17.86 1023.61 16.06 1023.61 17.82C1023.61 18.42 1023.07 18.8 1021.63 18.8C1020.31 18.8 1018.85 18.38 1017.89 17.76L1016.85 20C1017.85 20.66 1019.69 21.16 1021.51 21.16ZM1030.07 8.74C1031.23 8.74 1032.01 7.98 1032.01 6.94C1032.01 5.98 1031.23 5.26 1030.07 5.26C1028.91 5.26 1028.13 6.02 1028.13 7C1028.13 7.98 1028.91 8.74 1030.07 8.74ZM1028.51 21H1031.63V10.24H1028.51V21ZM1038.87 10.08C1037.15 10.08 1035.41 10.54 1034.23 11.38L1035.35 13.56C1036.13 12.94 1037.31 12.56 1038.45 12.56C1040.13 12.56 1040.93 13.34 1040.93 14.68H1038.45C1035.17 14.68 1033.83 16 1033.83 17.9C1033.83 19.76 1035.33 21.16 1037.85 21.16C1039.43 21.16 1040.55 20.64 1041.13 19.66V21H1044.05V14.86C1044.05 11.6 1042.15 10.08 1038.87 10.08ZM1038.63 19.06C1037.53 19.06 1036.87 18.54 1036.87 17.76C1036.87 17.04 1037.33 16.5 1038.79 16.5H1040.93V17.6C1040.57 18.58 1039.67 19.06 1038.63 19.06Z" fill="black"/>
<path d="M228.26 282.24C232.26 282.24 234.2 280.24 234.2 277.9C234.2 272.76 226.06 274.54 226.06 271.96C226.06 271.08 226.8 270.36 228.72 270.36C229.96 270.36 231.3 270.72 232.6 271.46L233.6 269C232.3 268.18 230.5 267.76 228.74 267.76C224.76 267.76 222.84 269.74 222.84 272.12C222.84 277.32 230.98 275.52 230.98 278.14C230.98 279 230.2 279.64 228.28 279.64C226.6 279.64 224.84 279.04 223.66 278.18L222.56 280.62C223.8 281.58 226.04 282.24 228.26 282.24ZM236.414 282H242.774C247.354 282 250.494 279.24 250.494 275C250.494 270.76 247.354 268 242.774 268H236.414V282ZM239.654 279.34V270.66H242.614C245.394 270.66 247.214 272.32 247.214 275C247.214 277.68 245.394 279.34 242.614 279.34H239.654ZM257.537 282.24C261.537 282.24 263.477 280.24 263.477 277.9C263.477 272.76 255.337 274.54 255.337 271.96C255.337 271.08 256.077 270.36 257.997 270.36C259.237 270.36 260.577 270.72 261.877 271.46L262.877 269C261.577 268.18 259.777 267.76 258.017 267.76C254.037 267.76 252.117 269.74 252.117 272.12C252.117 277.32 260.257 275.52 260.257 278.14C260.257 279 259.477 279.64 257.557 279.64C255.877 279.64 254.117 279.04 252.937 278.18L251.837 280.62C253.077 281.58 255.317 282.24 257.537 282.24ZM275.955 282.24C279.955 282.24 281.895 280.24 281.895 277.9C281.895 272.76 273.755 274.54 273.755 271.96C273.755 271.08 274.495 270.36 276.415 270.36C277.655 270.36 278.995 270.72 280.295 271.46L281.295 269C279.995 268.18 278.195 267.76 276.435 267.76C272.455 267.76 270.535 269.74 270.535 272.12C270.535 277.32 278.675 275.52 278.675 278.14C278.675 279 277.895 279.64 275.975 279.64C274.295 279.64 272.535 279.04 271.355 278.18L270.255 280.62C271.495 281.58 273.735 282.24 275.955 282.24ZM291.609 271.24V276.56C291.609 278.54 290.569 279.46 289.129 279.46C287.749 279.46 286.949 278.66 286.949 276.86V271.24H283.829V277.32C283.829 280.64 285.729 282.16 288.429 282.16C289.749 282.16 290.949 281.66 291.769 280.72V282H294.729V271.24H291.609ZM300.6 272.66V271.24H297.62V282H300.74V276.92C300.74 274.86 301.88 273.92 303.6 273.92C303.84 273.92 304.04 273.94 304.3 273.96V271.08C302.64 271.08 301.36 271.62 300.6 272.66ZM314.206 271.24L311.166 278.54L308.146 271.24H304.926L309.586 282.08L309.546 282.18C309.126 283.14 308.646 283.52 307.786 283.52C307.166 283.52 306.506 283.26 306.026 282.84L304.886 285.06C305.586 285.68 306.786 286.04 307.886 286.04C309.826 286.04 311.306 285.26 312.346 282.66L317.206 271.24H314.206ZM322.468 271.08C320.748 271.08 319.008 271.54 317.828 272.38L318.948 274.56C319.728 273.94 320.908 273.56 322.048 273.56C323.728 273.56 324.528 274.34 324.528 275.68H322.048C318.768 275.68 317.428 277 317.428 278.9C317.428 280.76 318.928 282.16 321.448 282.16C323.028 282.16 324.148 281.64 324.728 280.66V282H327.648V275.86C327.648 272.6 325.748 271.08 322.468 271.08ZM322.228 280.06C321.128 280.06 320.468 279.54 320.468 278.76C320.468 278.04 320.928 277.5 322.388 277.5H324.528V278.6C324.168 279.58 323.268 280.06 322.228 280.06ZM342.415 268H336.355V282H339.595V278.14H342.415C346.155 278.14 348.495 276.2 348.495 273.08C348.495 269.94 346.155 268 342.415 268ZM342.235 275.5H339.595V270.64H342.235C344.215 270.64 345.215 271.54 345.215 273.08C345.215 274.6 344.215 275.5 342.235 275.5ZM361.109 276.66C361.109 273.2 358.669 271.08 355.509 271.08C352.229 271.08 349.769 273.4 349.769 276.62C349.769 279.82 352.189 282.16 355.909 282.16C357.849 282.16 359.349 281.56 360.349 280.42L358.689 278.62C357.949 279.32 357.129 279.66 355.989 279.66C354.349 279.66 353.209 278.84 352.909 277.5H361.049C361.069 277.24 361.109 276.9 361.109 276.66ZM355.529 273.44C356.929 273.44 357.949 274.32 358.169 275.68H352.869C353.089 274.3 354.109 273.44 355.529 273.44ZM376.966 271.08C375.346 271.08 373.946 271.74 373.086 272.84C372.326 271.66 371.046 271.08 369.546 271.08C368.166 271.08 366.966 271.56 366.166 272.48V271.24H363.186V282H366.306V276.6C366.306 274.68 367.286 273.78 368.666 273.78C369.966 273.78 370.706 274.58 370.706 276.32V282H373.826V276.6C373.826 274.68 374.806 273.78 376.206 273.78C377.466 273.78 378.246 274.58 378.246 276.32V282H381.366V275.84C381.366 272.56 379.526 271.08 376.966 271.08ZM388.503 271.08C386.783 271.08 385.043 271.54 383.863 272.38L384.983 274.56C385.763 273.94 386.943 273.56 388.083 273.56C389.763 273.56 390.563 274.34 390.563 275.68H388.083C384.803 275.68 383.463 277 383.463 278.9C383.463 280.76 384.963 282.16 387.483 282.16C389.063 282.16 390.183 281.64 390.763 280.66V282H393.683V275.86C393.683 272.6 391.783 271.08 388.503 271.08ZM388.263 280.06C387.163 280.06 386.503 279.54 386.503 278.76C386.503 278.04 386.963 277.5 388.423 277.5H390.563V278.6C390.203 279.58 389.303 280.06 388.263 280.06ZM403.046 271.08C401.586 271.08 400.326 271.58 399.486 272.5V271.24H396.506V282H399.626V276.68C399.626 274.7 400.706 273.78 402.206 273.78C403.586 273.78 404.386 274.58 404.386 276.32V282H407.506V275.84C407.506 272.56 405.586 271.08 403.046 271.08ZM418.292 267.16V272.38C417.512 271.5 416.392 271.08 415.072 271.08C412.032 271.08 409.692 273.24 409.692 276.62C409.692 280 412.032 282.16 415.072 282.16C416.512 282.16 417.652 281.7 418.432 280.76V282H421.412V267.16H418.292ZM415.612 279.6C414.052 279.6 412.852 278.48 412.852 276.62C412.852 274.76 414.052 273.64 415.612 273.64C417.152 273.64 418.352 274.76 418.352 276.62C418.352 278.48 417.152 279.6 415.612 279.6ZM432.019 271.24V276.56C432.019 278.54 430.979 279.46 429.539 279.46C428.159 279.46 427.359 278.66 427.359 276.86V271.24H424.239V277.32C424.239 280.64 426.139 282.16 428.839 282.16C430.159 282.16 431.359 281.66 432.179 280.72V282H435.139V271.24H432.019Z" fill="black"/>
<circle cx="40.5" cy="144.5" r="10" fill="white" stroke="#4285F4" stroke-width="5"/>
<circle cx="250.5" cy="149.5" r="10" fill="white" stroke="#4285F4" stroke-width="5"/>
<circle cx="462.5" cy="144.5" r="10" fill="white" stroke="#4285F4" stroke-width="5"/>
<circle cx="681.5" cy="144.5" r="10" fill="white" stroke="#4285F4" stroke-width="5"/>
<circle cx="849.5" cy="144.5" r="10" fill="white" stroke="#4285F4" stroke-width="5"/>
</svg>
